EESchema Schematic File Version 4
EELAYER 30 0
EELAYER END
$Descr A4 11693 8268
encoding utf-8
Sheet 1 1
Title ""
Date ""
Rev ""
Comp ""
Comment1 ""
Comment2 ""
Comment3 ""
Comment4 ""
$EndDescr
$Comp
L power:GND #PWR0101
U 1 1 61B64702
P 3700 3700
F 0 "#PWR0101" H 3700 3450 50  0001 C CNN
F 1 "GND" H 3705 3527 50  0000 C CNN
F 2 "" H 3700 3700 50  0001 C CNN
F 3 "" H 3700 3700 50  0001 C CNN
	1    3700 3700
	1    0    0    -1  
$EndComp
$Comp
L Device:D D1
U 1 1 61B6568B
P 4750 2850
F 0 "D1" H 4750 2633 50  0000 C CNN
F 1 "6A05" H 4750 2724 50  0000 C CNN
F 2 "Diode_THT:D_P600_R-6_P20.00mm_Horizontal" H 4750 2850 50  0001 C CNN
F 3 "~" H 4750 2850 50  0001 C CNN
	1    4750 2850
	-1   0    0    1   
$EndComp
$Comp
L Device:R R1
U 1 1 61B66658
P 4900 3650
F 0 "R1" H 4970 3696 50  0000 L CNN
F 1 "25" H 4970 3605 50  0000 L CNN
F 2 "Resistor_THT:R_Axial_DIN0516_L15.5mm_D5.0mm_P20.32mm_Horizontal" V 4830 3650 50  0001 C CNN
F 3 "~" H 4900 3650 50  0001 C CNN
	1    4900 3650
	1    0    0    -1  
$EndComp
$Comp
L Device:D D2
U 1 1 61B69660
P 4350 3100
F 0 "D2" H 4350 2883 50  0000 C CNN
F 1 "1N4001" H 4350 2974 50  0000 C CNN
F 2 "Diode_THT:D_DO-41_SOD81_P10.16mm_Horizontal" H 4350 3100 50  0001 C CNN
F 3 "~" H 4350 3100 50  0001 C CNN
	1    4350 3100
	-1   0    0    1   
$EndComp
Wire Wire Line
	3400 3300 3700 3300
Wire Wire Line
	3700 3300 3700 3350
Wire Wire Line
	4200 2900 4200 3100
Wire Wire Line
	4000 2900 4000 2850
Wire Wire Line
	4000 2850 4600 2850
Wire Wire Line
	3400 2900 4000 2900
Connection ~ 4000 2900
Wire Wire Line
	4000 2900 4200 2900
Wire Wire Line
	4500 3100 4500 3800
Wire Wire Line
	4500 3800 4900 3800
$Comp
L Connector:Conn_01x01_Male J1
U 1 1 61B780D2
P 3200 2900
F 0 "J1" H 3308 3081 50  0000 C CNN
F 1 "Conn_01x01_Male" H 3308 2990 50  0000 C CNN
F 2 "TestPoint:TestPoint_Plated_Hole_D2.0mm" H 3200 2900 50  0001 C CNN
F 3 "~" H 3200 2900 50  0001 C CNN
	1    3200 2900
	1    0    0    -1  
$EndComp
$Comp
L Connector:Conn_01x01_Male J2
U 1 1 61B78526
P 3200 3300
F 0 "J2" H 3308 3481 50  0000 C CNN
F 1 "Conn_01x01_Male" H 3308 3390 50  0000 C CNN
F 2 "TestPoint:TestPoint_Plated_Hole_D2.0mm" H 3200 3300 50  0001 C CNN
F 3 "~" H 3200 3300 50  0001 C CNN
	1    3200 3300
	1    0    0    -1  
$EndComp
Wire Wire Line
	4900 2850 5500 2850
Wire Wire Line
	4900 3500 5500 3500
Wire Wire Line
	5500 3600 5500 4000
Wire Wire Line
	5500 4000 4100 4000
Wire Wire Line
	4100 4000 4100 3550
Wire Wire Line
	4100 3550 3700 3550
Connection ~ 3700 3550
Wire Wire Line
	3700 3550 3700 3700
Wire Wire Line
	5500 2950 5000 2950
Wire Wire Line
	5000 2950 5000 3350
Wire Wire Line
	5000 3350 3700 3350
Connection ~ 3700 3350
Wire Wire Line
	3700 3350 3700 3550
$Comp
L Connector:Conn_01x01_Male J3
U 1 1 61B84682
P 5700 2850
F 0 "J3" H 5672 2782 50  0000 R CNN
F 1 "Conn_01x01_Male" H 5672 2873 50  0000 R CNN
F 2 "TestPoint:TestPoint_Pad_1.0x1.0mm" H 5700 2850 50  0001 C CNN
F 3 "~" H 5700 2850 50  0001 C CNN
	1    5700 2850
	-1   0    0    1   
$EndComp
$Comp
L Connector:Conn_01x01_Male J4
U 1 1 61B852F1
P 5700 2950
F 0 "J4" H 5672 2882 50  0000 R CNN
F 1 "Conn_01x01_Male" H 5672 2973 50  0000 R CNN
F 2 "TestPoint:TestPoint_Pad_1.0x1.0mm" H 5700 2950 50  0001 C CNN
F 3 "~" H 5700 2950 50  0001 C CNN
	1    5700 2950
	-1   0    0    1   
$EndComp
$Comp
L Connector:Conn_01x01_Male J5
U 1 1 61B8542D
P 5700 3500
F 0 "J5" H 5672 3432 50  0000 R CNN
F 1 "Conn_01x01_Male" H 5672 3523 50  0000 R CNN
F 2 "TestPoint:TestPoint_Pad_1.0x1.0mm" H 5700 3500 50  0001 C CNN
F 3 "~" H 5700 3500 50  0001 C CNN
	1    5700 3500
	-1   0    0    1   
$EndComp
$Comp
L Connector:Conn_01x01_Male J6
U 1 1 61B85762
P 5700 3600
F 0 "J6" H 5672 3532 50  0000 R CNN
F 1 "Conn_01x01_Male" H 5672 3623 50  0000 R CNN
F 2 "TestPoint:TestPoint_Pad_1.0x1.0mm" H 5700 3600 50  0001 C CNN
F 3 "~" H 5700 3600 50  0001 C CNN
	1    5700 3600
	-1   0    0    1   
$EndComp
$EndSCHEMATC
