%TF.GenerationSoftware,KiCad,Pcbnew,(6.0.2)*%
%TF.CreationDate,2022-02-20T13:27:24+01:00*%
%TF.ProjectId,esky_circuit,65736b79-5f63-4697-9263-7569742e6b69,rev?*%
%TF.SameCoordinates,Original*%
%TF.FileFunction,Soldermask,Top*%
%TF.FilePolarity,Negative*%
%FSLAX46Y46*%
G04 Gerber Fmt 4.6, Leading zero omitted, Abs format (unit mm)*
G04 Created by KiCad (PCBNEW (6.0.2)) date 2022-02-20 13:27:24*
%MOMM*%
%LPD*%
G01*
G04 APERTURE LIST*
%ADD10R,3.200000X3.200000*%
%ADD11O,3.200000X3.200000*%
%ADD12C,2.400000*%
%ADD13O,2.400000X2.400000*%
%ADD14R,2.200000X2.200000*%
%ADD15O,2.200000X2.200000*%
%ADD16C,3.000000*%
G04 APERTURE END LIST*
D10*
%TO.C,D1*%
X157880000Y-62940000D03*
D11*
X137880000Y-62940000D03*
%TD*%
D12*
%TO.C,R1*%
X157720000Y-54140000D03*
D13*
X137400000Y-54140000D03*
%TD*%
D14*
%TO.C,D2*%
X132080000Y-53975000D03*
D15*
X132080000Y-64135000D03*
%TD*%
D16*
%TO.C,J1*%
X139700000Y-74930000D03*
%TD*%
%TO.C,J2*%
X148590000Y-74930000D03*
%TD*%
M02*
