%!PS-Adobe-3.0
%%Creator: PCBNEW
%%CreationDate: Sun Feb 20 13:27:22 2022
%%Title: ()
%%Pages: 1
%%PageOrder: Ascend
%%BoundingBox: 0 0 596 842
%%DocumentMedia: A4 595 842 0 () ()
%%Orientation: Landscape
%%EndComments
%%BeginProlog
/line { newpath moveto lineto stroke } bind def
/cir0 { newpath 0 360 arc stroke } bind def
/cir1 { newpath 0 360 arc gsave fill grestore stroke } bind def
/cir2 { newpath 0 360 arc gsave fill grestore stroke } bind def
/arc0 { newpath arc stroke } bind def
/arc1 { newpath 4 index 4 index moveto arc closepath gsave fill
    grestore stroke } bind def
/arc2 { newpath 4 index 4 index moveto arc closepath gsave fill
    grestore stroke } bind def
/poly0 { stroke } bind def
/poly1 { closepath gsave fill grestore stroke } bind def
/poly2 { closepath gsave fill grestore stroke } bind def
/rect0 { rectstroke } bind def
/rect1 { rectfill } bind def
/rect2 { rectfill } bind def
/linemode0 { 0 setlinecap 0 setlinejoin 0 setlinewidth } bind def
/linemode1 { 1 setlinecap 1 setlinejoin } bind def
/dashedline { [200] 100 setdash } bind def
/solidline { [] 0 setdash } bind def
/phantomshow { moveto
    /KicadFont findfont 0.000001 scalefont setfont
    show } bind def
/textshow { gsave
    findfont exch scalefont setfont concat 1 scale 0 0 moveto show
    } bind def
/reencodefont {
  findfont dup length dict begin
  { 1 index /FID ne
    { def }
    { pop pop } ifelse
  } forall
  /Encoding ISOLatin1Encoding def
  currentdict
  end } bind def
/KicadFont /Helvetica reencodefont definefont pop
/KicadFont-Bold /Helvetica-Bold reencodefont definefont pop
/KicadFont-Oblique /Helvetica-Oblique reencodefont definefont pop
/KicadFont-BoldOblique /Helvetica-BoldOblique reencodefont definefont pop
%%EndProlog
%%Page: 1 1
%%BeginPageSetup
gsave
0.0072 0.0072 scale
linemode1
82680 0 translate 90 rotate
236.22 setlinewidth
%%EndPageSetup
0 0 0 setrgbcolor
118.11 setlinewidth
newpath
38805.6 43171.3 moveto
38805.6 72580.7 lineto
stroke
0 0 0 setrgbcolor
177.165 setlinewidth
42939.4 49757.1 1771.65 cir0
0 0 0 setrgbcolor
118.11 setlinewidth
newpath
41805.6 75580.7 moveto
75124.4 75580.7 lineto
stroke
0 0 0 setrgbcolor
newpath
41805.6 40171.3 moveto
75124.4 40171.3 lineto
stroke
0 0 0 setrgbcolor
75124.4 43171.3 3000 -90 -2.25574e-05 arc0
0 0 0 setrgbcolor
75124.4 72580.7 3000 2.25574e-05 90 arc0
0 0 0 setrgbcolor
41805.6 43171.3 3000 -180 -90 arc0
0 0 0 setrgbcolor
newpath
78124.4 72580.7 moveto
78124.4 43171.3 lineto
stroke
0 0 0 setrgbcolor
41805.6 72580.7 3000 90 180 arc0
0 0 0 setrgbcolor
177.165 setlinewidth
71285.9 49757.1 1771.65 cir0
236.22 setlinewidth
129.921 setlinewidth
newpath
43565.4 72480.3 moveto
44864.6 71181.1 lineto
stroke
newpath
44864.6 72480.3 moveto
43565.4 71181.1 lineto
stroke
newpath
43565.4 60480.3 moveto
44864.6 59181.1 lineto
stroke
newpath
44864.6 60480.3 moveto
43565.4 59181.1 lineto
stroke
141.732 setlinewidth
50498.5 71635.8 708.661 cir0
74498.5 71635.8 708.661 cir0
188.976 setlinewidth
newpath
51065.4 62187 moveto
51065.4 60297.3 lineto
stroke
newpath
50120.5 61242.1 moveto
52010.3 61242.1 lineto
stroke
newpath
74687.4 62187 moveto
74687.4 60297.3 lineto
stroke
newpath
73742.6 61242.1 moveto
75632.3 61242.1 lineto
stroke
236.22 setlinewidth
newpath
54050.2 46245.6 moveto
54050.2 47915.9 lineto
52379.8 47915.9 lineto
52379.8 46245.6 lineto
54050.2 46245.6 lineto
poly0
newpath
64550.2 46245.6 moveto
64550.2 47915.9 lineto
62879.8 47915.9 lineto
62879.8 46245.6 lineto
64550.2 46245.6 lineto
poly0
78.7406 setlinewidth
0 0 0 setrgbcolor
0 0 0 setrgbcolor
newpath
39760.7 38889.9 moveto
39760.7 39677.3 lineto
39948.2 39677.3 lineto
40060.7 39639.8 lineto
40135.7 39564.8 lineto
40173.2 39489.8 lineto
40210.7 39339.8 lineto
40210.7 39227.3 lineto
40173.2 39077.3 lineto
40135.7 39002.4 lineto
40060.7 38927.4 lineto
39948.2 38889.9 lineto
39760.7 38889.9 lineto
stroke
newpath
40548.1 38889.9 moveto
40548.1 39414.8 lineto
stroke
newpath
40548.1 39264.8 moveto
40585.6 39339.8 lineto
40623.1 39377.3 lineto
40698.1 39414.8 lineto
40773.1 39414.8 lineto
stroke
newpath
41035.6 38889.9 moveto
41035.6 39414.8 lineto
stroke
newpath
41035.6 39677.3 moveto
40998.1 39639.8 lineto
41035.6 39602.3 lineto
41073.1 39639.8 lineto
41035.6 39677.3 lineto
41035.6 39602.3 lineto
stroke
newpath
41523 38889.9 moveto
41448 38927.4 lineto
41410.5 39002.4 lineto
41410.5 39677.3 lineto
stroke
newpath
41935.5 38889.9 moveto
41860.5 38927.4 lineto
41823 39002.4 lineto
41823 39677.3 lineto
stroke
newpath
42835.4 38889.9 moveto
42835.4 39677.3 lineto
43097.8 39114.8 lineto
43360.3 39677.3 lineto
43360.3 38889.9 lineto
stroke
newpath
44072.7 38889.9 moveto
44072.7 39302.3 lineto
44035.2 39377.3 lineto
43960.2 39414.8 lineto
43810.2 39414.8 lineto
43735.2 39377.3 lineto
stroke
newpath
44072.7 38927.4 moveto
43997.7 38889.9 lineto
43810.2 38889.9 lineto
43735.2 38927.4 lineto
43697.8 39002.4 lineto
43697.8 39077.3 lineto
43735.2 39152.3 lineto
43810.2 39189.8 lineto
43997.7 39189.8 lineto
44072.7 39227.3 lineto
stroke
newpath
44447.7 39414.8 moveto
44447.7 38627.4 lineto
stroke
newpath
44447.7 39377.3 moveto
44522.7 39414.8 lineto
44672.6 39414.8 lineto
44747.6 39377.3 lineto
44785.1 39339.8 lineto
44822.6 39264.8 lineto
44822.6 39039.9 lineto
44785.1 38964.9 lineto
44747.6 38927.4 lineto
44672.6 38889.9 lineto
44522.7 38889.9 lineto
44447.7 38927.4 lineto
stroke
newpath
45160.1 38964.9 moveto
45197.6 38927.4 lineto
45160.1 38889.9 lineto
45122.6 38927.4 lineto
45160.1 38964.9 lineto
45160.1 38889.9 lineto
stroke
newpath
45160.1 39377.3 moveto
45197.6 39339.8 lineto
45160.1 39302.3 lineto
45122.6 39339.8 lineto
45160.1 39377.3 lineto
45160.1 39302.3 lineto
stroke
78.7394 setlinewidth
newpath
37959.1 37986.2 moveto
38746.5 37198.8 lineto
stroke
newpath
38746.5 37986.2 moveto
37959.1 37198.8 lineto
stroke
236.22 setlinewidth
78.7406 setlinewidth
0 0 0 setrgbcolor
0 0 0 setrgbcolor
newpath
40173.2 37236.3 moveto
39723.2 37236.3 lineto
stroke
newpath
39948.2 37236.3 moveto
39948.2 38023.7 lineto
39873.2 37911.2 lineto
39798.2 37836.3 lineto
39723.2 37798.8 lineto
stroke
newpath
40510.7 37311.3 moveto
40548.1 37273.8 lineto
40510.7 37236.3 lineto
40473.2 37273.8 lineto
40510.7 37311.3 lineto
40510.7 37236.3 lineto
stroke
newpath
41298.1 37236.3 moveto
40848.1 37236.3 lineto
stroke
newpath
41073.1 37236.3 moveto
41073.1 38023.7 lineto
40998.1 37911.2 lineto
40923.1 37836.3 lineto
40848.1 37798.8 lineto
stroke
newpath
41785.5 38023.7 moveto
41860.5 38023.7 lineto
41935.5 37986.2 lineto
41973 37948.7 lineto
42010.5 37873.7 lineto
42048 37723.8 lineto
42048 37536.3 lineto
42010.5 37386.3 lineto
41973 37311.3 lineto
41935.5 37273.8 lineto
41860.5 37236.3 lineto
41785.5 37236.3 lineto
41710.5 37273.8 lineto
41673 37311.3 lineto
41635.5 37386.3 lineto
41598 37536.3 lineto
41598 37723.8 lineto
41635.5 37873.7 lineto
41673 37948.7 lineto
41710.5 37986.2 lineto
41785.5 38023.7 lineto
stroke
newpath
42535.4 38023.7 moveto
42610.4 38023.7 lineto
42685.4 37986.2 lineto
42722.9 37948.7 lineto
42760.4 37873.7 lineto
42797.9 37723.8 lineto
42797.9 37536.3 lineto
42760.4 37386.3 lineto
42722.9 37311.3 lineto
42685.4 37273.8 lineto
42610.4 37236.3 lineto
42535.4 37236.3 lineto
42460.4 37273.8 lineto
42422.9 37311.3 lineto
42385.4 37386.3 lineto
42347.9 37536.3 lineto
42347.9 37723.8 lineto
42385.4 37873.7 lineto
42422.9 37948.7 lineto
42460.4 37986.2 lineto
42535.4 38023.7 lineto
stroke
newpath
43135.3 37236.3 moveto
43135.3 37761.3 lineto
stroke
newpath
43135.3 37686.3 moveto
43172.8 37723.8 lineto
43247.8 37761.3 lineto
43360.3 37761.3 lineto
43435.3 37723.8 lineto
43472.8 37648.8 lineto
43472.8 37236.3 lineto
stroke
newpath
43472.8 37648.8 moveto
43510.3 37723.8 lineto
43585.3 37761.3 lineto
43697.8 37761.3 lineto
43772.7 37723.8 lineto
43810.2 37648.8 lineto
43810.2 37236.3 lineto
stroke
newpath
44185.2 37236.3 moveto
44185.2 37761.3 lineto
stroke
newpath
44185.2 37686.3 moveto
44222.7 37723.8 lineto
44297.7 37761.3 lineto
44410.2 37761.3 lineto
44485.2 37723.8 lineto
44522.7 37648.8 lineto
44522.7 37236.3 lineto
stroke
newpath
44522.7 37648.8 moveto
44560.1 37723.8 lineto
44635.1 37761.3 lineto
44747.6 37761.3 lineto
44822.6 37723.8 lineto
44860.1 37648.8 lineto
44860.1 37236.3 lineto
stroke
newpath
46397.4 38061.2 moveto
45722.5 37048.9 lineto
stroke
newpath
47409.8 38023.7 moveto
47484.8 38023.7 lineto
47559.8 37986.2 lineto
47597.3 37948.7 lineto
47634.8 37873.7 lineto
47672.3 37723.8 lineto
47672.3 37536.3 lineto
47634.8 37386.3 lineto
47597.3 37311.3 lineto
47559.8 37273.8 lineto
47484.8 37236.3 lineto
47409.8 37236.3 lineto
47334.8 37273.8 lineto
47297.3 37311.3 lineto
47259.8 37386.3 lineto
47222.3 37536.3 lineto
47222.3 37723.8 lineto
47259.8 37873.7 lineto
47297.3 37948.7 lineto
47334.8 37986.2 lineto
47409.8 38023.7 lineto
stroke
newpath
48009.7 37311.3 moveto
48047.2 37273.8 lineto
48009.7 37236.3 lineto
47972.2 37273.8 lineto
48009.7 37311.3 lineto
48009.7 37236.3 lineto
stroke
newpath
48534.7 38023.7 moveto
48609.6 38023.7 lineto
48684.6 37986.2 lineto
48722.1 37948.7 lineto
48759.6 37873.7 lineto
48797.1 37723.8 lineto
48797.1 37536.3 lineto
48759.6 37386.3 lineto
48722.1 37311.3 lineto
48684.6 37273.8 lineto
48609.6 37236.3 lineto
48534.7 37236.3 lineto
48459.7 37273.8 lineto
48422.2 37311.3 lineto
48384.7 37386.3 lineto
48347.2 37536.3 lineto
48347.2 37723.8 lineto
48384.7 37873.7 lineto
48422.2 37948.7 lineto
48459.7 37986.2 lineto
48534.7 38023.7 lineto
stroke
newpath
49472 37761.3 moveto
49472 37236.3 lineto
stroke
newpath
49284.6 38061.2 moveto
49097.1 37498.8 lineto
49584.5 37498.8 lineto
stroke
newpath
49809.5 38023.7 moveto
50296.9 38023.7 lineto
50034.5 37723.8 lineto
50147 37723.8 lineto
50221.9 37686.3 lineto
50259.4 37648.8 lineto
50296.9 37573.8 lineto
50296.9 37386.3 lineto
50259.4 37311.3 lineto
50221.9 37273.8 lineto
50147 37236.3 lineto
49922 37236.3 lineto
49847 37273.8 lineto
49809.5 37311.3 lineto
stroke
newpath
50559.4 38023.7 moveto
51046.8 38023.7 lineto
50784.4 37723.8 lineto
50896.9 37723.8 lineto
50971.8 37686.3 lineto
51009.3 37648.8 lineto
51046.8 37573.8 lineto
51046.8 37386.3 lineto
51009.3 37311.3 lineto
50971.8 37273.8 lineto
50896.9 37236.3 lineto
50671.9 37236.3 lineto
50596.9 37273.8 lineto
50559.4 37311.3 lineto
stroke
newpath
51346.8 38023.7 moveto
51346.8 37873.7 lineto
stroke
newpath
51646.8 38023.7 moveto
51646.8 37873.7 lineto
stroke
newpath
52809.1 36936.4 moveto
52771.6 36973.9 lineto
52696.6 37086.3 lineto
52659.1 37161.3 lineto
52621.6 37273.8 lineto
52584.1 37461.3 lineto
52584.1 37611.3 lineto
52621.6 37798.8 lineto
52659.1 37911.2 lineto
52696.6 37986.2 lineto
52771.6 38098.7 lineto
52809.1 38136.2 lineto
stroke
newpath
53071.6 37948.7 moveto
53109.1 37986.2 lineto
53184.1 38023.7 lineto
53371.6 38023.7 lineto
53446.5 37986.2 lineto
53484 37948.7 lineto
53521.5 37873.7 lineto
53521.5 37798.8 lineto
53484 37686.3 lineto
53034.1 37236.3 lineto
53521.5 37236.3 lineto
stroke
newpath
54458.9 37236.3 moveto
54458.9 38023.7 lineto
stroke
newpath
54796.4 37236.3 moveto
54796.4 37648.8 lineto
54758.9 37723.8 lineto
54683.9 37761.3 lineto
54571.4 37761.3 lineto
54496.4 37723.8 lineto
54458.9 37686.3 lineto
stroke
newpath
55283.8 37236.3 moveto
55208.8 37273.8 lineto
55171.3 37311.3 lineto
55133.8 37386.3 lineto
55133.8 37611.3 lineto
55171.3 37686.3 lineto
55208.8 37723.8 lineto
55283.8 37761.3 lineto
55396.3 37761.3 lineto
55471.3 37723.8 lineto
55508.8 37686.3 lineto
55546.3 37611.3 lineto
55546.3 37386.3 lineto
55508.8 37311.3 lineto
55471.3 37273.8 lineto
55396.3 37236.3 lineto
55283.8 37236.3 lineto
stroke
newpath
55996.2 37236.3 moveto
55921.2 37273.8 lineto
55883.7 37348.8 lineto
55883.7 38023.7 lineto
stroke
newpath
56596.1 37273.8 moveto
56521.2 37236.3 lineto
56371.2 37236.3 lineto
56296.2 37273.8 lineto
56258.7 37348.8 lineto
56258.7 37648.8 lineto
56296.2 37723.8 lineto
56371.2 37761.3 lineto
56521.2 37761.3 lineto
56596.1 37723.8 lineto
56633.6 37648.8 lineto
56633.6 37573.8 lineto
56258.7 37498.8 lineto
stroke
newpath
56933.6 37273.8 moveto
57008.6 37236.3 lineto
57158.6 37236.3 lineto
57233.6 37273.8 lineto
57271.1 37348.8 lineto
57271.1 37386.3 lineto
57233.6 37461.3 lineto
57158.6 37498.8 lineto
57046.1 37498.8 lineto
56971.1 37536.3 lineto
56933.6 37611.3 lineto
56933.6 37648.8 lineto
56971.1 37723.8 lineto
57046.1 37761.3 lineto
57158.6 37761.3 lineto
57233.6 37723.8 lineto
stroke
newpath
57533.5 36936.4 moveto
57571 36973.9 lineto
57646 37086.3 lineto
57683.5 37161.3 lineto
57721 37273.8 lineto
57758.5 37461.3 lineto
57758.5 37611.3 lineto
57721 37798.8 lineto
57683.5 37911.2 lineto
57646 37986.2 lineto
57571 38098.7 lineto
57533.5 38136.2 lineto
stroke
78.7394 setlinewidth
38352.8 36332.7 393.7 cir0
236.22 setlinewidth
78.7406 setlinewidth
0 0 0 setrgbcolor
0 0 0 setrgbcolor
newpath
40173.2 35976.5 moveto
39723.2 35976.5 lineto
stroke
newpath
39948.2 35976.5 moveto
39948.2 36763.9 lineto
39873.2 36651.4 lineto
39798.2 36576.4 lineto
39723.2 36538.9 lineto
stroke
newpath
40510.7 36051.5 moveto
40548.1 36014 lineto
40510.7 35976.5 lineto
40473.2 36014 lineto
40510.7 36051.5 lineto
40510.7 35976.5 lineto
stroke
newpath
40848.1 36688.9 moveto
40885.6 36726.4 lineto
40960.6 36763.9 lineto
41148.1 36763.9 lineto
41223.1 36726.4 lineto
41260.6 36688.9 lineto
41298.1 36613.9 lineto
41298.1 36538.9 lineto
41260.6 36426.4 lineto
40810.6 35976.5 lineto
41298.1 35976.5 lineto
stroke
newpath
41785.5 36763.9 moveto
41860.5 36763.9 lineto
41935.5 36726.4 lineto
41973 36688.9 lineto
42010.5 36613.9 lineto
42048 36463.9 lineto
42048 36276.4 lineto
42010.5 36126.5 lineto
41973 36051.5 lineto
41935.5 36014 lineto
41860.5 35976.5 lineto
41785.5 35976.5 lineto
41710.5 36014 lineto
41673 36051.5 lineto
41635.5 36126.5 lineto
41598 36276.4 lineto
41598 36463.9 lineto
41635.5 36613.9 lineto
41673 36688.9 lineto
41710.5 36726.4 lineto
41785.5 36763.9 lineto
stroke
newpath
42535.4 36763.9 moveto
42610.4 36763.9 lineto
42685.4 36726.4 lineto
42722.9 36688.9 lineto
42760.4 36613.9 lineto
42797.9 36463.9 lineto
42797.9 36276.4 lineto
42760.4 36126.5 lineto
42722.9 36051.5 lineto
42685.4 36014 lineto
42610.4 35976.5 lineto
42535.4 35976.5 lineto
42460.4 36014 lineto
42422.9 36051.5 lineto
42385.4 36126.5 lineto
42347.9 36276.4 lineto
42347.9 36463.9 lineto
42385.4 36613.9 lineto
42422.9 36688.9 lineto
42460.4 36726.4 lineto
42535.4 36763.9 lineto
stroke
newpath
43135.3 35976.5 moveto
43135.3 36501.4 lineto
stroke
newpath
43135.3 36426.4 moveto
43172.8 36463.9 lineto
43247.8 36501.4 lineto
43360.3 36501.4 lineto
43435.3 36463.9 lineto
43472.8 36388.9 lineto
43472.8 35976.5 lineto
stroke
newpath
43472.8 36388.9 moveto
43510.3 36463.9 lineto
43585.3 36501.4 lineto
43697.8 36501.4 lineto
43772.7 36463.9 lineto
43810.2 36388.9 lineto
43810.2 35976.5 lineto
stroke
newpath
44185.2 35976.5 moveto
44185.2 36501.4 lineto
stroke
newpath
44185.2 36426.4 moveto
44222.7 36463.9 lineto
44297.7 36501.4 lineto
44410.2 36501.4 lineto
44485.2 36463.9 lineto
44522.7 36388.9 lineto
44522.7 35976.5 lineto
stroke
newpath
44522.7 36388.9 moveto
44560.1 36463.9 lineto
44635.1 36501.4 lineto
44747.6 36501.4 lineto
44822.6 36463.9 lineto
44860.1 36388.9 lineto
44860.1 35976.5 lineto
stroke
newpath
46397.4 36801.4 moveto
45722.5 35789 lineto
stroke
newpath
47409.8 36763.9 moveto
47484.8 36763.9 lineto
47559.8 36726.4 lineto
47597.3 36688.9 lineto
47634.8 36613.9 lineto
47672.3 36463.9 lineto
47672.3 36276.4 lineto
47634.8 36126.5 lineto
47597.3 36051.5 lineto
47559.8 36014 lineto
47484.8 35976.5 lineto
47409.8 35976.5 lineto
47334.8 36014 lineto
47297.3 36051.5 lineto
47259.8 36126.5 lineto
47222.3 36276.4 lineto
47222.3 36463.9 lineto
47259.8 36613.9 lineto
47297.3 36688.9 lineto
47334.8 36726.4 lineto
47409.8 36763.9 lineto
stroke
newpath
48009.7 36051.5 moveto
48047.2 36014 lineto
48009.7 35976.5 lineto
47972.2 36014 lineto
48009.7 36051.5 lineto
48009.7 35976.5 lineto
stroke
newpath
48534.7 36763.9 moveto
48609.6 36763.9 lineto
48684.6 36726.4 lineto
48722.1 36688.9 lineto
48759.6 36613.9 lineto
48797.1 36463.9 lineto
48797.1 36276.4 lineto
48759.6 36126.5 lineto
48722.1 36051.5 lineto
48684.6 36014 lineto
48609.6 35976.5 lineto
48534.7 35976.5 lineto
48459.7 36014 lineto
48422.2 36051.5 lineto
48384.7 36126.5 lineto
48347.2 36276.4 lineto
48347.2 36463.9 lineto
48384.7 36613.9 lineto
48422.2 36688.9 lineto
48459.7 36726.4 lineto
48534.7 36763.9 lineto
stroke
newpath
49472 36501.4 moveto
49472 35976.5 lineto
stroke
newpath
49284.6 36801.4 moveto
49097.1 36239 lineto
49584.5 36239 lineto
stroke
newpath
49809.5 36763.9 moveto
50334.4 36763.9 lineto
49997 35976.5 lineto
stroke
newpath
50596.9 36688.9 moveto
50634.4 36726.4 lineto
50709.4 36763.9 lineto
50896.9 36763.9 lineto
50971.8 36726.4 lineto
51009.3 36688.9 lineto
51046.8 36613.9 lineto
51046.8 36538.9 lineto
51009.3 36426.4 lineto
50559.4 35976.5 lineto
51046.8 35976.5 lineto
stroke
newpath
51346.8 36763.9 moveto
51346.8 36613.9 lineto
stroke
newpath
51646.8 36763.9 moveto
51646.8 36613.9 lineto
stroke
newpath
52809.1 35676.5 moveto
52771.6 35714 lineto
52696.6 35826.5 lineto
52659.1 35901.5 lineto
52621.6 36014 lineto
52584.1 36201.5 lineto
52584.1 36351.4 lineto
52621.6 36538.9 lineto
52659.1 36651.4 lineto
52696.6 36726.4 lineto
52771.6 36838.9 lineto
52809.1 36876.4 lineto
stroke
newpath
53071.6 36688.9 moveto
53109.1 36726.4 lineto
53184.1 36763.9 lineto
53371.6 36763.9 lineto
53446.5 36726.4 lineto
53484 36688.9 lineto
53521.5 36613.9 lineto
53521.5 36538.9 lineto
53484 36426.4 lineto
53034.1 35976.5 lineto
53521.5 35976.5 lineto
stroke
newpath
54458.9 35976.5 moveto
54458.9 36763.9 lineto
stroke
newpath
54796.4 35976.5 moveto
54796.4 36388.9 lineto
54758.9 36463.9 lineto
54683.9 36501.4 lineto
54571.4 36501.4 lineto
54496.4 36463.9 lineto
54458.9 36426.4 lineto
stroke
newpath
55283.8 35976.5 moveto
55208.8 36014 lineto
55171.3 36051.5 lineto
55133.8 36126.5 lineto
55133.8 36351.4 lineto
55171.3 36426.4 lineto
55208.8 36463.9 lineto
55283.8 36501.4 lineto
55396.3 36501.4 lineto
55471.3 36463.9 lineto
55508.8 36426.4 lineto
55546.3 36351.4 lineto
55546.3 36126.5 lineto
55508.8 36051.5 lineto
55471.3 36014 lineto
55396.3 35976.5 lineto
55283.8 35976.5 lineto
stroke
newpath
55996.2 35976.5 moveto
55921.2 36014 lineto
55883.7 36089 lineto
55883.7 36763.9 lineto
stroke
newpath
56596.1 36014 moveto
56521.2 35976.5 lineto
56371.2 35976.5 lineto
56296.2 36014 lineto
56258.7 36089 lineto
56258.7 36388.9 lineto
56296.2 36463.9 lineto
56371.2 36501.4 lineto
56521.2 36501.4 lineto
56596.1 36463.9 lineto
56633.6 36388.9 lineto
56633.6 36313.9 lineto
56258.7 36239 lineto
stroke
newpath
56933.6 36014 moveto
57008.6 35976.5 lineto
57158.6 35976.5 lineto
57233.6 36014 lineto
57271.1 36089 lineto
57271.1 36126.5 lineto
57233.6 36201.5 lineto
57158.6 36239 lineto
57046.1 36239 lineto
56971.1 36276.4 lineto
56933.6 36351.4 lineto
56933.6 36388.9 lineto
56971.1 36463.9 lineto
57046.1 36501.4 lineto
57158.6 36501.4 lineto
57233.6 36463.9 lineto
stroke
newpath
57533.5 35676.5 moveto
57571 35714 lineto
57646 35826.5 lineto
57683.5 35901.5 lineto
57721 36014 lineto
57758.5 36201.5 lineto
57758.5 36351.4 lineto
57721 36538.9 lineto
57683.5 36651.4 lineto
57646 36726.4 lineto
57571 36838.9 lineto
57533.5 36876.4 lineto
stroke
78.7394 setlinewidth
newpath
38352.8 35466.5 moveto
38352.8 34679.1 lineto
stroke
newpath
37959.1 35072.8 moveto
38746.5 35072.8 lineto
stroke
236.22 setlinewidth
78.7406 setlinewidth
0 0 0 setrgbcolor
0 0 0 setrgbcolor
newpath
40173.2 34716.6 moveto
39723.2 34716.6 lineto
stroke
newpath
39948.2 34716.6 moveto
39948.2 35504 lineto
39873.2 35391.6 lineto
39798.2 35316.6 lineto
39723.2 35279.1 lineto
stroke
newpath
40510.7 34791.6 moveto
40548.1 34754.1 lineto
40510.7 34716.6 lineto
40473.2 34754.1 lineto
40510.7 34791.6 lineto
40510.7 34716.6 lineto
stroke
newpath
41223.1 35504 moveto
41073.1 35504 lineto
40998.1 35466.5 lineto
40960.6 35429.1 lineto
40885.6 35316.6 lineto
40848.1 35166.6 lineto
40848.1 34866.6 lineto
40885.6 34791.6 lineto
40923.1 34754.1 lineto
40998.1 34716.6 lineto
41148.1 34716.6 lineto
41223.1 34754.1 lineto
41260.6 34791.6 lineto
41298.1 34866.6 lineto
41298.1 35054.1 lineto
41260.6 35129.1 lineto
41223.1 35166.6 lineto
41148.1 35204.1 lineto
40998.1 35204.1 lineto
40923.1 35166.6 lineto
40885.6 35129.1 lineto
40848.1 35054.1 lineto
stroke
newpath
41785.5 35504 moveto
41860.5 35504 lineto
41935.5 35466.5 lineto
41973 35429.1 lineto
42010.5 35354.1 lineto
42048 35204.1 lineto
42048 35016.6 lineto
42010.5 34866.6 lineto
41973 34791.6 lineto
41935.5 34754.1 lineto
41860.5 34716.6 lineto
41785.5 34716.6 lineto
41710.5 34754.1 lineto
41673 34791.6 lineto
41635.5 34866.6 lineto
41598 35016.6 lineto
41598 35204.1 lineto
41635.5 35354.1 lineto
41673 35429.1 lineto
41710.5 35466.5 lineto
41785.5 35504 lineto
stroke
newpath
42535.4 35504 moveto
42610.4 35504 lineto
42685.4 35466.5 lineto
42722.9 35429.1 lineto
42760.4 35354.1 lineto
42797.9 35204.1 lineto
42797.9 35016.6 lineto
42760.4 34866.6 lineto
42722.9 34791.6 lineto
42685.4 34754.1 lineto
42610.4 34716.6 lineto
42535.4 34716.6 lineto
42460.4 34754.1 lineto
42422.9 34791.6 lineto
42385.4 34866.6 lineto
42347.9 35016.6 lineto
42347.9 35204.1 lineto
42385.4 35354.1 lineto
42422.9 35429.1 lineto
42460.4 35466.5 lineto
42535.4 35504 lineto
stroke
newpath
43135.3 34716.6 moveto
43135.3 35241.6 lineto
stroke
newpath
43135.3 35166.6 moveto
43172.8 35204.1 lineto
43247.8 35241.6 lineto
43360.3 35241.6 lineto
43435.3 35204.1 lineto
43472.8 35129.1 lineto
43472.8 34716.6 lineto
stroke
newpath
43472.8 35129.1 moveto
43510.3 35204.1 lineto
43585.3 35241.6 lineto
43697.8 35241.6 lineto
43772.7 35204.1 lineto
43810.2 35129.1 lineto
43810.2 34716.6 lineto
stroke
newpath
44185.2 34716.6 moveto
44185.2 35241.6 lineto
stroke
newpath
44185.2 35166.6 moveto
44222.7 35204.1 lineto
44297.7 35241.6 lineto
44410.2 35241.6 lineto
44485.2 35204.1 lineto
44522.7 35129.1 lineto
44522.7 34716.6 lineto
stroke
newpath
44522.7 35129.1 moveto
44560.1 35204.1 lineto
44635.1 35241.6 lineto
44747.6 35241.6 lineto
44822.6 35204.1 lineto
44860.1 35129.1 lineto
44860.1 34716.6 lineto
stroke
newpath
46397.4 35541.5 moveto
45722.5 34529.2 lineto
stroke
newpath
47409.8 35504 moveto
47484.8 35504 lineto
47559.8 35466.5 lineto
47597.3 35429.1 lineto
47634.8 35354.1 lineto
47672.3 35204.1 lineto
47672.3 35016.6 lineto
47634.8 34866.6 lineto
47597.3 34791.6 lineto
47559.8 34754.1 lineto
47484.8 34716.6 lineto
47409.8 34716.6 lineto
47334.8 34754.1 lineto
47297.3 34791.6 lineto
47259.8 34866.6 lineto
47222.3 35016.6 lineto
47222.3 35204.1 lineto
47259.8 35354.1 lineto
47297.3 35429.1 lineto
47334.8 35466.5 lineto
47409.8 35504 lineto
stroke
newpath
48009.7 34791.6 moveto
48047.2 34754.1 lineto
48009.7 34716.6 lineto
47972.2 34754.1 lineto
48009.7 34791.6 lineto
48009.7 34716.6 lineto
stroke
newpath
48534.7 35504 moveto
48609.6 35504 lineto
48684.6 35466.5 lineto
48722.1 35429.1 lineto
48759.6 35354.1 lineto
48797.1 35204.1 lineto
48797.1 35016.6 lineto
48759.6 34866.6 lineto
48722.1 34791.6 lineto
48684.6 34754.1 lineto
48609.6 34716.6 lineto
48534.7 34716.6 lineto
48459.7 34754.1 lineto
48422.2 34791.6 lineto
48384.7 34866.6 lineto
48347.2 35016.6 lineto
48347.2 35204.1 lineto
48384.7 35354.1 lineto
48422.2 35429.1 lineto
48459.7 35466.5 lineto
48534.7 35504 lineto
stroke
newpath
49472 35504 moveto
49322.1 35504 lineto
49247.1 35466.5 lineto
49209.6 35429.1 lineto
49134.6 35316.6 lineto
49097.1 35166.6 lineto
49097.1 34866.6 lineto
49134.6 34791.6 lineto
49172.1 34754.1 lineto
49247.1 34716.6 lineto
49397 34716.6 lineto
49472 34754.1 lineto
49509.5 34791.6 lineto
49547 34866.6 lineto
49547 35054.1 lineto
49509.5 35129.1 lineto
49472 35166.6 lineto
49397 35204.1 lineto
49247.1 35204.1 lineto
49172.1 35166.6 lineto
49134.6 35129.1 lineto
49097.1 35054.1 lineto
stroke
newpath
49809.5 35504 moveto
50296.9 35504 lineto
50034.5 35204.1 lineto
50147 35204.1 lineto
50221.9 35166.6 lineto
50259.4 35129.1 lineto
50296.9 35054.1 lineto
50296.9 34866.6 lineto
50259.4 34791.6 lineto
50221.9 34754.1 lineto
50147 34716.6 lineto
49922 34716.6 lineto
49847 34754.1 lineto
49809.5 34791.6 lineto
stroke
newpath
50784.4 35504 moveto
50859.4 35504 lineto
50934.4 35466.5 lineto
50971.8 35429.1 lineto
51009.3 35354.1 lineto
51046.8 35204.1 lineto
51046.8 35016.6 lineto
51009.3 34866.6 lineto
50971.8 34791.6 lineto
50934.4 34754.1 lineto
50859.4 34716.6 lineto
50784.4 34716.6 lineto
50709.4 34754.1 lineto
50671.9 34791.6 lineto
50634.4 34866.6 lineto
50596.9 35016.6 lineto
50596.9 35204.1 lineto
50634.4 35354.1 lineto
50671.9 35429.1 lineto
50709.4 35466.5 lineto
50784.4 35504 lineto
stroke
newpath
51346.8 35504 moveto
51346.8 35354.1 lineto
stroke
newpath
51646.8 35504 moveto
51646.8 35354.1 lineto
stroke
newpath
52809.1 34416.7 moveto
52771.6 34454.2 lineto
52696.6 34566.7 lineto
52659.1 34641.7 lineto
52621.6 34754.1 lineto
52584.1 34941.6 lineto
52584.1 35091.6 lineto
52621.6 35279.1 lineto
52659.1 35391.6 lineto
52696.6 35466.5 lineto
52771.6 35579 lineto
52809.1 35616.5 lineto
stroke
newpath
53071.6 35429.1 moveto
53109.1 35466.5 lineto
53184.1 35504 lineto
53371.6 35504 lineto
53446.5 35466.5 lineto
53484 35429.1 lineto
53521.5 35354.1 lineto
53521.5 35279.1 lineto
53484 35166.6 lineto
53034.1 34716.6 lineto
53521.5 34716.6 lineto
stroke
newpath
54458.9 34716.6 moveto
54458.9 35504 lineto
stroke
newpath
54796.4 34716.6 moveto
54796.4 35129.1 lineto
54758.9 35204.1 lineto
54683.9 35241.6 lineto
54571.4 35241.6 lineto
54496.4 35204.1 lineto
54458.9 35166.6 lineto
stroke
newpath
55283.8 34716.6 moveto
55208.8 34754.1 lineto
55171.3 34791.6 lineto
55133.8 34866.6 lineto
55133.8 35091.6 lineto
55171.3 35166.6 lineto
55208.8 35204.1 lineto
55283.8 35241.6 lineto
55396.3 35241.6 lineto
55471.3 35204.1 lineto
55508.8 35166.6 lineto
55546.3 35091.6 lineto
55546.3 34866.6 lineto
55508.8 34791.6 lineto
55471.3 34754.1 lineto
55396.3 34716.6 lineto
55283.8 34716.6 lineto
stroke
newpath
55996.2 34716.6 moveto
55921.2 34754.1 lineto
55883.7 34829.1 lineto
55883.7 35504 lineto
stroke
newpath
56596.1 34754.1 moveto
56521.2 34716.6 lineto
56371.2 34716.6 lineto
56296.2 34754.1 lineto
56258.7 34829.1 lineto
56258.7 35129.1 lineto
56296.2 35204.1 lineto
56371.2 35241.6 lineto
56521.2 35241.6 lineto
56596.1 35204.1 lineto
56633.6 35129.1 lineto
56633.6 35054.1 lineto
56258.7 34979.1 lineto
stroke
newpath
56933.6 34754.1 moveto
57008.6 34716.6 lineto
57158.6 34716.6 lineto
57233.6 34754.1 lineto
57271.1 34829.1 lineto
57271.1 34866.6 lineto
57233.6 34941.6 lineto
57158.6 34979.1 lineto
57046.1 34979.1 lineto
56971.1 35016.6 lineto
56933.6 35091.6 lineto
56933.6 35129.1 lineto
56971.1 35204.1 lineto
57046.1 35241.6 lineto
57158.6 35241.6 lineto
57233.6 35204.1 lineto
stroke
newpath
57533.5 34416.7 moveto
57571 34454.2 lineto
57646 34566.7 lineto
57683.5 34641.7 lineto
57721 34754.1 lineto
57758.5 34941.6 lineto
57758.5 35091.6 lineto
57721 35279.1 lineto
57683.5 35391.6 lineto
57646 35466.5 lineto
57571 35579 lineto
57533.5 35616.5 lineto
stroke
78.7394 setlinewidth
newpath
38631.2 33534.6 moveto
38631.2 34091.4 lineto
38074.4 34091.4 lineto
38074.4 33534.6 lineto
38631.2 33534.6 lineto
poly0
236.22 setlinewidth
78.7406 setlinewidth
0 0 0 setrgbcolor
0 0 0 setrgbcolor
newpath
39723.2 34169.2 moveto
39760.7 34206.7 lineto
39835.7 34244.2 lineto
40023.2 34244.2 lineto
40098.2 34206.7 lineto
40135.7 34169.2 lineto
40173.2 34094.2 lineto
40173.2 34019.2 lineto
40135.7 33906.7 lineto
39685.8 33456.8 lineto
40173.2 33456.8 lineto
stroke
newpath
40510.7 33531.8 moveto
40548.1 33494.3 lineto
40510.7 33456.8 lineto
40473.2 33494.3 lineto
40510.7 33531.8 lineto
40510.7 33456.8 lineto
stroke
newpath
41035.6 34244.2 moveto
41110.6 34244.2 lineto
41185.6 34206.7 lineto
41223.1 34169.2 lineto
41260.6 34094.2 lineto
41298.1 33944.2 lineto
41298.1 33756.8 lineto
41260.6 33606.8 lineto
41223.1 33531.8 lineto
41185.6 33494.3 lineto
41110.6 33456.8 lineto
41035.6 33456.8 lineto
40960.6 33494.3 lineto
40923.1 33531.8 lineto
40885.6 33606.8 lineto
40848.1 33756.8 lineto
40848.1 33944.2 lineto
40885.6 34094.2 lineto
40923.1 34169.2 lineto
40960.6 34206.7 lineto
41035.6 34244.2 lineto
stroke
newpath
41785.5 34244.2 moveto
41860.5 34244.2 lineto
41935.5 34206.7 lineto
41973 34169.2 lineto
42010.5 34094.2 lineto
42048 33944.2 lineto
42048 33756.8 lineto
42010.5 33606.8 lineto
41973 33531.8 lineto
41935.5 33494.3 lineto
41860.5 33456.8 lineto
41785.5 33456.8 lineto
41710.5 33494.3 lineto
41673 33531.8 lineto
41635.5 33606.8 lineto
41598 33756.8 lineto
41598 33944.2 lineto
41635.5 34094.2 lineto
41673 34169.2 lineto
41710.5 34206.7 lineto
41785.5 34244.2 lineto
stroke
newpath
42535.4 34244.2 moveto
42610.4 34244.2 lineto
42685.4 34206.7 lineto
42722.9 34169.2 lineto
42760.4 34094.2 lineto
42797.9 33944.2 lineto
42797.9 33756.8 lineto
42760.4 33606.8 lineto
42722.9 33531.8 lineto
42685.4 33494.3 lineto
42610.4 33456.8 lineto
42535.4 33456.8 lineto
42460.4 33494.3 lineto
42422.9 33531.8 lineto
42385.4 33606.8 lineto
42347.9 33756.8 lineto
42347.9 33944.2 lineto
42385.4 34094.2 lineto
42422.9 34169.2 lineto
42460.4 34206.7 lineto
42535.4 34244.2 lineto
stroke
newpath
43135.3 33456.8 moveto
43135.3 33981.7 lineto
stroke
newpath
43135.3 33906.7 moveto
43172.8 33944.2 lineto
43247.8 33981.7 lineto
43360.3 33981.7 lineto
43435.3 33944.2 lineto
43472.8 33869.2 lineto
43472.8 33456.8 lineto
stroke
newpath
43472.8 33869.2 moveto
43510.3 33944.2 lineto
43585.3 33981.7 lineto
43697.8 33981.7 lineto
43772.7 33944.2 lineto
43810.2 33869.2 lineto
43810.2 33456.8 lineto
stroke
newpath
44185.2 33456.8 moveto
44185.2 33981.7 lineto
stroke
newpath
44185.2 33906.7 moveto
44222.7 33944.2 lineto
44297.7 33981.7 lineto
44410.2 33981.7 lineto
44485.2 33944.2 lineto
44522.7 33869.2 lineto
44522.7 33456.8 lineto
stroke
newpath
44522.7 33869.2 moveto
44560.1 33944.2 lineto
44635.1 33981.7 lineto
44747.6 33981.7 lineto
44822.6 33944.2 lineto
44860.1 33869.2 lineto
44860.1 33456.8 lineto
stroke
newpath
46397.4 34281.7 moveto
45722.5 33269.3 lineto
stroke
newpath
47409.8 34244.2 moveto
47484.8 34244.2 lineto
47559.8 34206.7 lineto
47597.3 34169.2 lineto
47634.8 34094.2 lineto
47672.3 33944.2 lineto
47672.3 33756.8 lineto
47634.8 33606.8 lineto
47597.3 33531.8 lineto
47559.8 33494.3 lineto
47484.8 33456.8 lineto
47409.8 33456.8 lineto
47334.8 33494.3 lineto
47297.3 33531.8 lineto
47259.8 33606.8 lineto
47222.3 33756.8 lineto
47222.3 33944.2 lineto
47259.8 34094.2 lineto
47297.3 34169.2 lineto
47334.8 34206.7 lineto
47409.8 34244.2 lineto
stroke
newpath
48009.7 33531.8 moveto
48047.2 33494.3 lineto
48009.7 33456.8 lineto
47972.2 33494.3 lineto
48009.7 33531.8 lineto
48009.7 33456.8 lineto
stroke
newpath
48534.7 34244.2 moveto
48609.6 34244.2 lineto
48684.6 34206.7 lineto
48722.1 34169.2 lineto
48759.6 34094.2 lineto
48797.1 33944.2 lineto
48797.1 33756.8 lineto
48759.6 33606.8 lineto
48722.1 33531.8 lineto
48684.6 33494.3 lineto
48609.6 33456.8 lineto
48534.7 33456.8 lineto
48459.7 33494.3 lineto
48422.2 33531.8 lineto
48384.7 33606.8 lineto
48347.2 33756.8 lineto
48347.2 33944.2 lineto
48384.7 34094.2 lineto
48422.2 34169.2 lineto
48459.7 34206.7 lineto
48534.7 34244.2 lineto
stroke
newpath
49059.6 34244.2 moveto
49584.5 34244.2 lineto
49247.1 33456.8 lineto
stroke
newpath
49997 33906.7 moveto
49922 33944.2 lineto
49884.5 33981.7 lineto
49847 34056.7 lineto
49847 34094.2 lineto
49884.5 34169.2 lineto
49922 34206.7 lineto
49997 34244.2 lineto
50147 34244.2 lineto
50221.9 34206.7 lineto
50259.4 34169.2 lineto
50296.9 34094.2 lineto
50296.9 34056.7 lineto
50259.4 33981.7 lineto
50221.9 33944.2 lineto
50147 33906.7 lineto
49997 33906.7 lineto
49922 33869.2 lineto
49884.5 33831.8 lineto
49847 33756.8 lineto
49847 33606.8 lineto
49884.5 33531.8 lineto
49922 33494.3 lineto
49997 33456.8 lineto
50147 33456.8 lineto
50221.9 33494.3 lineto
50259.4 33531.8 lineto
50296.9 33606.8 lineto
50296.9 33756.8 lineto
50259.4 33831.8 lineto
50221.9 33869.2 lineto
50147 33906.7 lineto
stroke
newpath
50559.4 34244.2 moveto
51084.3 34244.2 lineto
50746.9 33456.8 lineto
stroke
newpath
51346.8 34244.2 moveto
51346.8 34094.2 lineto
stroke
newpath
51646.8 34244.2 moveto
51646.8 34094.2 lineto
stroke
newpath
52809.1 33156.8 moveto
52771.6 33194.3 lineto
52696.6 33306.8 lineto
52659.1 33381.8 lineto
52621.6 33494.3 lineto
52584.1 33681.8 lineto
52584.1 33831.8 lineto
52621.6 34019.2 lineto
52659.1 34131.7 lineto
52696.6 34206.7 lineto
52771.6 34319.2 lineto
52809.1 34356.7 lineto
stroke
newpath
53071.6 34169.2 moveto
53109.1 34206.7 lineto
53184.1 34244.2 lineto
53371.6 34244.2 lineto
53446.5 34206.7 lineto
53484 34169.2 lineto
53521.5 34094.2 lineto
53521.5 34019.2 lineto
53484 33906.7 lineto
53034.1 33456.8 lineto
53521.5 33456.8 lineto
stroke
newpath
54458.9 33456.8 moveto
54458.9 34244.2 lineto
stroke
newpath
54796.4 33456.8 moveto
54796.4 33869.2 lineto
54758.9 33944.2 lineto
54683.9 33981.7 lineto
54571.4 33981.7 lineto
54496.4 33944.2 lineto
54458.9 33906.7 lineto
stroke
newpath
55283.8 33456.8 moveto
55208.8 33494.3 lineto
55171.3 33531.8 lineto
55133.8 33606.8 lineto
55133.8 33831.8 lineto
55171.3 33906.7 lineto
55208.8 33944.2 lineto
55283.8 33981.7 lineto
55396.3 33981.7 lineto
55471.3 33944.2 lineto
55508.8 33906.7 lineto
55546.3 33831.8 lineto
55546.3 33606.8 lineto
55508.8 33531.8 lineto
55471.3 33494.3 lineto
55396.3 33456.8 lineto
55283.8 33456.8 lineto
stroke
newpath
55996.2 33456.8 moveto
55921.2 33494.3 lineto
55883.7 33569.3 lineto
55883.7 34244.2 lineto
stroke
newpath
56596.1 33494.3 moveto
56521.2 33456.8 lineto
56371.2 33456.8 lineto
56296.2 33494.3 lineto
56258.7 33569.3 lineto
56258.7 33869.2 lineto
56296.2 33944.2 lineto
56371.2 33981.7 lineto
56521.2 33981.7 lineto
56596.1 33944.2 lineto
56633.6 33869.2 lineto
56633.6 33794.3 lineto
56258.7 33719.3 lineto
stroke
newpath
56933.6 33494.3 moveto
57008.6 33456.8 lineto
57158.6 33456.8 lineto
57233.6 33494.3 lineto
57271.1 33569.3 lineto
57271.1 33606.8 lineto
57233.6 33681.8 lineto
57158.6 33719.3 lineto
57046.1 33719.3 lineto
56971.1 33756.8 lineto
56933.6 33831.8 lineto
56933.6 33869.2 lineto
56971.1 33944.2 lineto
57046.1 33981.7 lineto
57158.6 33981.7 lineto
57233.6 33944.2 lineto
stroke
newpath
57533.5 33156.8 moveto
57571 33194.3 lineto
57646 33306.8 lineto
57683.5 33381.8 lineto
57721 33494.3 lineto
57758.5 33681.8 lineto
57758.5 33831.8 lineto
57721 34019.2 lineto
57683.5 34131.7 lineto
57646 34206.7 lineto
57571 34319.2 lineto
57533.5 34356.7 lineto
stroke
showpage
grestore
%%EOF
