%!PS-Adobe-3.0
%%Creator: PCBNEW
%%CreationDate: Sun Feb 20 13:27:22 2022
%%Title: ()
%%Pages: 1
%%PageOrder: Ascend
%%BoundingBox: 0 0 596 842
%%DocumentMedia: A4 595 842 0 () ()
%%Orientation: Landscape
%%EndComments
%%BeginProlog
/line { newpath moveto lineto stroke } bind def
/cir0 { newpath 0 360 arc stroke } bind def
/cir1 { newpath 0 360 arc gsave fill grestore stroke } bind def
/cir2 { newpath 0 360 arc gsave fill grestore stroke } bind def
/arc0 { newpath arc stroke } bind def
/arc1 { newpath 4 index 4 index moveto arc closepath gsave fill
    grestore stroke } bind def
/arc2 { newpath 4 index 4 index moveto arc closepath gsave fill
    grestore stroke } bind def
/poly0 { stroke } bind def
/poly1 { closepath gsave fill grestore stroke } bind def
/poly2 { closepath gsave fill grestore stroke } bind def
/rect0 { rectstroke } bind def
/rect1 { rectfill } bind def
/rect2 { rectfill } bind def
/linemode0 { 0 setlinecap 0 setlinejoin 0 setlinewidth } bind def
/linemode1 { 1 setlinecap 1 setlinejoin } bind def
/dashedline { [200] 100 setdash } bind def
/solidline { [] 0 setdash } bind def
/phantomshow { moveto
    /KicadFont findfont 0.000001 scalefont setfont
    show } bind def
/textshow { gsave
    findfont exch scalefont setfont concat 1 scale 0 0 moveto show
    } bind def
/reencodefont {
  findfont dup length dict begin
  { 1 index /FID ne
    { def }
    { pop pop } ifelse
  } forall
  /Encoding ISOLatin1Encoding def
  currentdict
  end } bind def
/KicadFont /Helvetica reencodefont definefont pop
/KicadFont-Bold /Helvetica-Bold reencodefont definefont pop
/KicadFont-Oblique /Helvetica-Oblique reencodefont definefont pop
/KicadFont-BoldOblique /Helvetica-BoldOblique reencodefont definefont pop
%%EndProlog
%%Page: 1 1
%%BeginPageSetup
gsave
0.0072 0.0072 scale
linemode1
82680 0 translate 90 rotate
236.22 setlinewidth
%%EndPageSetup
0 0 0 setrgbcolor
118.11 setlinewidth
newpath
38805.6 43171.3 moveto
38805.6 72580.7 lineto
stroke
0 0 0 setrgbcolor
177.165 setlinewidth
42939.4 49757.1 1771.65 cir0
0 0 0 setrgbcolor
118.11 setlinewidth
newpath
41805.6 75580.7 moveto
75124.4 75580.7 lineto
stroke
0 0 0 setrgbcolor
newpath
41805.6 40171.3 moveto
75124.4 40171.3 lineto
stroke
0 0 0 setrgbcolor
75124.4 43171.3 3000 -90 -2.25574e-05 arc0
0 0 0 setrgbcolor
75124.4 72580.7 3000 2.25574e-05 90 arc0
0 0 0 setrgbcolor
41805.6 43171.3 3000 -180 -90 arc0
0 0 0 setrgbcolor
newpath
78124.4 72580.7 moveto
78124.4 43171.3 lineto
stroke
0 0 0 setrgbcolor
41805.6 72580.7 3000 90 180 arc0
0 0 0 setrgbcolor
177.165 setlinewidth
71285.9 49757.1 1771.65 cir0
236.22 setlinewidth
78.7406 setlinewidth
0 0 0 setrgbcolor
0 0 0 setrgbcolor
newpath
39760.7 38889.9 moveto
39760.7 39677.3 lineto
39948.2 39677.3 lineto
40060.7 39639.8 lineto
40135.7 39564.8 lineto
40173.2 39489.8 lineto
40210.7 39339.8 lineto
40210.7 39227.3 lineto
40173.2 39077.3 lineto
40135.7 39002.4 lineto
40060.7 38927.4 lineto
39948.2 38889.9 lineto
39760.7 38889.9 lineto
stroke
newpath
40548.1 38889.9 moveto
40548.1 39414.8 lineto
stroke
newpath
40548.1 39264.8 moveto
40585.6 39339.8 lineto
40623.1 39377.3 lineto
40698.1 39414.8 lineto
40773.1 39414.8 lineto
stroke
newpath
41035.6 38889.9 moveto
41035.6 39414.8 lineto
stroke
newpath
41035.6 39677.3 moveto
40998.1 39639.8 lineto
41035.6 39602.3 lineto
41073.1 39639.8 lineto
41035.6 39677.3 lineto
41035.6 39602.3 lineto
stroke
newpath
41523 38889.9 moveto
41448 38927.4 lineto
41410.5 39002.4 lineto
41410.5 39677.3 lineto
stroke
newpath
41935.5 38889.9 moveto
41860.5 38927.4 lineto
41823 39002.4 lineto
41823 39677.3 lineto
stroke
newpath
42835.4 38889.9 moveto
42835.4 39677.3 lineto
43097.8 39114.8 lineto
43360.3 39677.3 lineto
43360.3 38889.9 lineto
stroke
newpath
44072.7 38889.9 moveto
44072.7 39302.3 lineto
44035.2 39377.3 lineto
43960.2 39414.8 lineto
43810.2 39414.8 lineto
43735.2 39377.3 lineto
stroke
newpath
44072.7 38927.4 moveto
43997.7 38889.9 lineto
43810.2 38889.9 lineto
43735.2 38927.4 lineto
43697.8 39002.4 lineto
43697.8 39077.3 lineto
43735.2 39152.3 lineto
43810.2 39189.8 lineto
43997.7 39189.8 lineto
44072.7 39227.3 lineto
stroke
newpath
44447.7 39414.8 moveto
44447.7 38627.4 lineto
stroke
newpath
44447.7 39377.3 moveto
44522.7 39414.8 lineto
44672.6 39414.8 lineto
44747.6 39377.3 lineto
44785.1 39339.8 lineto
44822.6 39264.8 lineto
44822.6 39039.9 lineto
44785.1 38964.9 lineto
44747.6 38927.4 lineto
44672.6 38889.9 lineto
44522.7 38889.9 lineto
44447.7 38927.4 lineto
stroke
newpath
45160.1 38964.9 moveto
45197.6 38927.4 lineto
45160.1 38889.9 lineto
45122.6 38927.4 lineto
45160.1 38964.9 lineto
45160.1 38889.9 lineto
stroke
newpath
45160.1 39377.3 moveto
45197.6 39339.8 lineto
45160.1 39302.3 lineto
45122.6 39339.8 lineto
45160.1 39377.3 lineto
45160.1 39302.3 lineto
stroke
showpage
grestore
%%EOF
